%YAML 1.1
%TAG !u! tag:unity3d.com,2011:
--- !u!114 &11400000
MonoBehaviour:
  m_ObjectHideFlags: 0
  m_PrefabParentObject: {fileID: 0}
  m_PrefabInternal: {fileID: 0}
  m_GameObject: {fileID: 0}
  m_Enabled: 1
  m_EditorHideFlags: 0
  m_Script: {fileID: 11500000, guid: 3a01c7f858236ed49ad17f4c2b9c99ea, type: 3}
  m_Name: Report
  m_EditorClassIdentifier: 
  profileIndex: 000000000000000000000000
  profileStatus:
  - Aprovado
  - 
  - 
